%YAML 1.1
%TAG !u! tag:unity3d.com,2011:
--- !u!1 &1683906393204144647
GameObject:
  m_ObjectHideFlags: 0
  m_CorrespondingSourceObject: {fileID: 0}
  m_PrefabInstance: {fileID: 0}
  m_PrefabAsset: {fileID: 0}
  serializedVersion: 6
  m_Component:
  - component: {fileID: 8742083543619251574}
  - component: {fileID: 3671385488343323901}
  m_Layer: 0
  m_Name: SpawnDoor
  m_TagString: Untagged
  m_Icon: {fileID: 3936346786652291628, guid: 0000000000000000d000000000000000, type: 0}
  m_NavMeshLayer: 0
  m_StaticEditorFlags: 0
  m_IsActive: 1
--- !u!4 &8742083543619251574
Transform:
  m_ObjectHideFlags: 0
  m_CorrespondingSourceObject: {fileID: 0}
  m_PrefabInstance: {fileID: 0}
  m_PrefabAsset: {fileID: 0}
  m_GameObject: {fileID: 1683906393204144647}
  m_LocalRotation: {x: 0, y: 0, z: 0, w: 1}
  m_LocalPosition: {x: 0, y: 0, z: 0}
  m_LocalScale: {x: 1, y: 1, z: 1}
  m_Children: []
  m_Father: {fileID: 0}
  m_RootOrder: 0
  m_LocalEulerAnglesHint: {x: 0, y: 0, z: 0}
--- !u!114 &3671385488343323901
MonoBehaviour:
  m_ObjectHideFlags: 0
  m_CorrespondingSourceObject: {fileID: 0}
  m_PrefabInstance: {fileID: 0}
  m_PrefabAsset: {fileID: 0}
  m_GameObject: {fileID: 1683906393204144647}
  m_Enabled: 1
  m_EditorHideFlags: 0
  m_Script: {fileID: 11500000, guid: 621bf17a7c67ecc4ea196068807e84cb, type: 3}
  m_Name: 
  m_EditorClassIdentifier: 
  objects:
  - {fileID: 906552093116910850, guid: 087431d02a176634a9204753ab4fe176, type: 3}
  - {fileID: 6043348988258665527, guid: 3e02dfbac3ac0ce469bacbfab9810234, type: 3}
  - {fileID: 906552093116910850, guid: 6f1d6eb5b51719a46bccbb9b30124c96, type: 3}
  - {fileID: 906552093116910850, guid: 8d32eee8487b0e74aa0b0fb56d9e6c68, type: 3}
  - {fileID: 906552093116910850, guid: 322bd11386ecf2d44983aa47f1041728, type: 3}
